Random Forest for site survey
…
##       FALSE TRUE class.error
## FALSE    63   13  0.17105263
## TRUE      2   66  0.02941176

When testing the model on the full dataset, it is pretty good. This is the percentage of caves that were correctly predicted:

## [1] 0.7877934

Applying the model to the Ligurian dataset, it predicts accurately the presence of Meso archaeology in the 3 sites with known archaeology from that period. This is satisfying for now.

## # A tibble: 221 x 3
##    name                       MesoArch pred 
##    <chr>                      <lgl>    <fct>
##  1 Grotta Arene Candide       TRUE     TRUE 
##  2 Arma dello Stefanin        TRUE     TRUE 
##  3 Arma Veirana               TRUE     TRUE 
##  4 Grotta 489                 FALSE    FALSE
##  5 Pozzo dell'Acqua che bolle FALSE    FALSE
##  6 Grotta Adriana             FALSE    FALSE
##  7 Grotta dell'Andrassa       FALSE    FALSE
##  8 Andrassa da Campagna       FALSE    TRUE 
##  9 Arma delle Anime           FALSE    TRUE 
## 10 Grotta dell'Antenna        FALSE    TRUE 
## #  with 211 more rows

## [1] 65

According to this model, these are the sites that we should look into for our surveys:

## # A tibble: 65 x 1
##    name                   
##    <chr>                  
##  1 Andrassa da Campagna   
##  2 Arma Cornarea          
##  3 Arma del Sanguineto    
##  4 Arma della Moretta     
##  5 Arma della Perseveranza
##  6 Arma delle Anime       
##  7 Arma delle Fate        
##  8 Arma dello Stefanin    
##  9 Arma di Perti          
## 10 Arma di Ronco          
## #  with 55 more rows
…
